%YAML 1.1
%TAG !u! tag:unity3d.com,2011:
--- !u!47 &1
QualitySettings:
  m_ObjectHideFlags: 0
  serializedVersion: 5
  m_CurrentQuality: 0
  m_QualitySettings:
  - serializedVersion: 2
    name: Base
    pixelLightCount: 20
    shadows: 2
    shadowResolution: 3
    shadowProjection: 1
    shadowCascades: 4
    shadowDistance: 15
    shadowNearPlaneOffset: 0.02
    shadowCascade2Split: 0.33333334
    shadowCascade4Split: {x: 0.06666667, y: 0.2, z: 0.46666667}
    shadowmaskMode: 0
    skinWeights: 1
    textureQuality: 0
    anisotropicTextures: 2
    antiAliasing: 0
    softParticles: 1
    softVegetation: 0
    realtimeReflectionProbes: 1
    billboardsFaceCameraPosition: 1
    vSyncCount: 0
    lodBias: 0.3
    maximumLODLevel: 0
    streamingMipmapsActive: 0
    streamingMipmapsAddAllCameras: 1
    streamingMipmapsMemoryBudget: 512
    streamingMipmapsRenderersPerFrame: 512
    streamingMipmapsMaxLevelReduction: 2
    streamingMipmapsMaxFileIORequests: 1024
    particleRaycastBudget: 4
    asyncUploadTimeSlice: 2
    asyncUploadBufferSize: 4
    asyncUploadPersistentBuffer: 1
    resolutionScalingFixedDPIFactor: 1
    excludedTargetPlatforms: []
  m_PerPlatformDefaultQuality: {}
